<?xml version="1.0" encoding="utf-8"?>
<!-- Generator: Adobe Illustrator 16.0.0, SVG Export Plug-In . SVG Version: 6.00 Build 0)  -->
<!DOCTYPE svg PUBLIC "-//W3C//DTD SVG 1.1//EN" "http://www.w3.org/Graphics/SVG/1.1/DTD/svg11.dtd">
<svg version="1.1" id="Layer_1" xmlns="http://www.w3.org/2000/svg" xmlns:xlink="http://www.w3.org/1999/xlink" x="0px" y="0px"
	 width="100px" height="100px" viewBox="0 0 100 100" enable-background="new 0 0 100 100" xml:space="preserve">
<path fill="#177697" d="M50.403,0.958c-20.497,0-37.125,16.622-37.125,37.127c0,27.395,37.125,60.621,37.125,60.621
	s37.131-28.457,37.131-60.621C87.534,17.58,70.91,0.958,50.403,0.958z M51.164,61.785c-12.764,0-23.113-10.349-23.113-23.118
	c0-12.766,10.35-23.11,23.113-23.11c12.766,0,23.115,10.344,23.115,23.11C74.279,51.437,63.93,61.785,51.164,61.785z"/>
<polygon fill="#177697" points="62.673,29.502 61.069,29.502 52.953,48.973 51.781,48.973 59.902,29.502 55.014,29.502 
	50.673,39.659 46.108,29.502 38.615,29.502 47.63,50.31 48.13,50.31 56.199,30.964 57.364,30.964 49.303,50.31 54.002,50.31 "/>
</svg>
